[
  { "id": 73, "name": "Buttercup", "company": "Powerpuff Brigade" },
  { "id": 93, "name": "Blossom", "company": "Powerpuff Brigade" },
  { "id": 94, "name": "Bubbles", "company": "Powerpuff Brigade" }
]
